<?xml version="1.0" encoding="UTF-8" standalone="no"?>
<svg
   xmlns:dc="http://purl.org/dc/elements/1.1/"
   xmlns:cc="http://creativecommons.org/ns#"
   xmlns:rdf="http://www.w3.org/1999/02/22-rdf-syntax-ns#"
   xmlns:svg="http://www.w3.org/2000/svg"
   xmlns="http://www.w3.org/2000/svg"
   xmlns:sodipodi="http://sodipodi.sourceforge.net/DTD/sodipodi-0.dtd"
   xmlns:inkscape="http://www.inkscape.org/namespaces/inkscape"
   width="333.33334"
   height="266.66666"
   id="svg2"
   version="1.1"
   inkscape:version="0.48.3.1 r9886"
   sodipodi:docname="gitlabdotcom.svg"
   inkscape:export-filename="/home/sytse/Desktop/Gitlab/Logo/gitlabdotcom.png"
   inkscape:export-xdpi="300"
   inkscape:export-ydpi="300">
  <metadata
     id="metadata19">
    <rdf:RDF>
      <cc:Work
         rdf:about="">
        <dc:format>image/svg+xml</dc:format>
        <dc:type
           rdf:resource="http://purl.org/dc/dcmitype/StillImage" />
        <dc:title>empty flask</dc:title>
      </cc:Work>
    </rdf:RDF>
  </metadata>
  <defs
     id="defs17" />
  <sodipodi:namedview
     pagecolor="#ffffff"
     bordercolor="#666666"
     borderopacity="1"
     objecttolerance="10"
     gridtolerance="10"
     guidetolerance="10"
     inkscape:pageopacity="1"
     inkscape:pageshadow="2"
     inkscape:window-width="1871"
     inkscape:window-height="1176"
     id="namedview15"
     showgrid="false"
     inkscape:zoom="2.8319999"
     inkscape:cx="133.33333"
     inkscape:cy="116.01997"
     inkscape:window-x="49"
     inkscape:window-y="24"
     inkscape:window-maximized="1"
     inkscape:current-layer="svg2" />
  <title
     id="title4">empty flask</title>
  <g
     id="g6"
     transform="matrix(0.14062503,0,0,0.14062503,124.91522,109.6272)">
    <title
       id="title8">Layer 1</title>
    <g
       externalResourcesRequired="false"
       id="layer1">
      <g
         id="g2651">
        <path
           stroke-miterlimit="4"
           id="path29274"
           d="m 86.03125,19.828156 10.625,10.625 c 0,25.984253 0,40.735291 0,67.3125 0,26.577214 -48.434048,89.774354 -70.874996,134.656254 -7.086611,14.17321 -7.067419,31.88928 3.5625,46.0625 7.086609,10.62988 19.461449,14.1875 31.875,14.1875 42.519696,0 85.042826,0 127.562496,0 12.41348,0 24.7883,-3.55756 31.875,-14.1875 10.62991,-14.17322 10.64909,-31.88929 3.5625,-46.0625 -20.0788,-44.8819 -43.70245,-89.77436 -63.78125,-134.656254 0,-25.984253 0,-41.328247 0,-67.3125 l 10.28125,-10.28125 0.34375,-0.34375 -85.03125,0 z"
           inkscape:connector-curvature="0"
           style="fill:#d7e9fc;fill-rule:evenodd;stroke:#9fabb9;stroke-width:2.5;stroke-linecap:round;stroke-linejoin:round;stroke-miterlimit:4" />
        <path
           id="path6038"
           d="m 147.9375,30.159088 c 0,22.916656 0,45.833313 0,68.75 22.55379,47.695862 45.21669,95.360472 67.7038,143.074832 6.29116,14.89495 -1.55588,32.25555 -15.16469,39.88806 -12.13339,8.14392 -27.07826,4.99451 -40.74156,5.55688 -9.66796,0 -19.33593,0 -29.0039,0 17.30881,-2.22851 34.97065,-2.64886 52.04754,-6.09155 11.21589,-3.50128 24.84172,-9.74188 25.52684,-23.28979 0.70513,-14.46167 -8.36634,-26.69867 -13.19201,-39.76856 -17.39199,-39.78998 -34.78401,-79.57989 -52.17602,-119.369872 0,-22.916687 0,-45.833344 0,-68.75 l 9.03735,-9.085266 5.03192,0 -9.06927,9.085266 z"
           inkscape:connector-curvature="0"
           style="fill:#ffffff;fill-rule:evenodd;stroke-width:1px" />
        <path
           id="path1613"
           d="m 102.61354,30.159088 c 0,22.916656 0,45.833313 0,68.75 -22.553779,47.695862 -49.688926,91.035582 -72.176036,138.750002 -6.291161,14.89496 -1.25,35 11.25,43.75 12.5,6.25 8.75,5 22.878475,6.63843 9.667969,0 45.585941,-0.61866 55.253911,-0.61866 C 102.51107,285.20035 84.849243,284.78 67.772339,281.33731 56.556446,277.83603 42.930634,271.59543 42.245503,258.04752 41.540364,243.58585 50.611836,231.34885 55.437504,218.27896 72.829506,178.48898 90.22152,138.69907 107.61354,98.909088 c 0,-22.916687 0,-45.833344 0,-68.75 l -9.037368,-9.085266 -5.031921,0 9.069289,9.085266 z"
           inkscape:connector-curvature="0"
           style="fill:#000000;fill-opacity:0.176245;fill-rule:evenodd;stroke-width:1px" />
      </g>
    </g>
  </g>
  <text
     xml:space="preserve"
     style="font-size:51.22290802px;font-style:normal;font-variant:normal;font-weight:bold;font-stretch:normal;text-align:start;line-height:125%;letter-spacing:0px;word-spacing:0px;writing-mode:lr-tb;text-anchor:start;fill:#000000;fill-opacity:1;stroke:none;font-family:Sans;-inkscape-font-specification:Sans Bold"
     x="9.7475767"
     y="150.12607"
     id="text2996"
     sodipodi:linespacing="125%"><tspan
       sodipodi:role="line"
       id="tspan2998"
       x="9.7475767"
       y="150.12607"
       style="font-size:51.22290801999999843px;font-style:normal;font-variant:normal;font-weight:normal;font-stretch:normal;text-align:start;line-height:125%;writing-mode:lr-tb;text-anchor:start;font-family:Sans;-inkscape-font-specification:Sans;fill:#4d4d4d">GITL  B.COM</tspan></text>
</svg>
